Getting Started With the COVID-19 Data
…
## See spec(...) for full column specifications.

cases

## # A tibble: 3,142 x 259
##    county_fips_code county_name state state_fips_code date       confirmed_cases
##    <chr>            <chr>       <chr> <chr>           <date>               <dbl>
##  1 50009            Essex Coun VT    50              2021-01-19             111
##  2 50007            Chittenden VT    50              2021-01-19            3636
##  3 10001            Kent County DE    10              2021-01-19           11548
##  4 44009            Washington RI    44              2021-01-19            5521
##  5 33001            Belknap Co NH    33              2021-01-19            2496
##  6 44005            Newport Co RI    44              2021-01-19            3578
##  7 50015            Lamoille C VT    50              2021-01-19             312
##  8 09013            Tolland Co CT    09              2021-01-19            6255
##  9 50001            Addison Co VT    50              2021-01-19             527
## 10 50005            Caledonia  VT    50              2021-01-19             307
## #  with 3,132 more rows, and 253 more variables: deaths <dbl>, geo_id <chr>,
## #   nonfamily_households <dbl>, family_households <dbl>,
## #   median_year_structure_built <dbl>, rent_burden_not_computed <dbl>,
## #   rent_over_50_percent <dbl>, rent_40_to_50_percent <dbl>,
## #   rent_35_to_40_percent <dbl>, rent_30_to_35_percent <dbl>,
## #   rent_25_to_30_percent <dbl>, rent_20_to_25_percent <dbl>,
## #   rent_15_to_20_percent <dbl>, rent_10_to_15_percent <dbl>,
## #   rent_under_10_percent <dbl>, total_pop <dbl>, male_pop <dbl>,
## #   female_pop <dbl>, median_age <dbl>, white_pop <dbl>, black_pop <dbl>,
…
## Parsed with column specification:
## cols(
##   county_fips_code = col_character(),
##   county_name = col_character(),
##   state = col_character(),
##   state_fips_code = col_double(),
##   date = col_date(format = ""),
##   confirmed_cases = col_double(),
##   deaths = col_double()
## )

cases_TX

## # A tibble: 94,350 x 7
##    county_fips_code county_name state state_fips_code date       confirmed_cases
##    <chr>            <chr>       <chr>           <dbl> <date>               <dbl>
##  1 00000            Statewide  TX                 48 2020-01-22               0
##  2 00000            Statewide  TX                 48 2020-01-23               0
##  3 00000            Statewide  TX                 48 2020-01-24               0
##  4 00000            Statewide  TX                 48 2020-01-25               0
##  5 00000            Statewide  TX                 48 2020-01-26               0
##  6 00000            Statewide  TX                 48 2020-01-27               0
##  7 00000            Statewide  TX                 48 2020-01-28               0
##  8 00000            Statewide  TX                 48 2020-01-29               0
##  9 00000            Statewide  TX                 48 2020-01-30               0
## 10 00000            Statewide  TX                 48 2020-01-31               0
## #  with 94,340 more rows, and 1 more variable: deaths <dbl>
…
mobility_Dallas <- mobility %>% filter(sub_region_1 == "Texas" & sub_region_2 == "Dallas County")
dim(mobility_Dallas)

## [1] 343  14

mobility_Dallas

## # A tibble: 343 x 14
##    country_region_ country_region sub_region_1 sub_region_2 metro_area
##    <fct>            <fct>          <fct>        <fct>        <lgl>     
##  1 US               United States  Texas        Dallas Coun NA        
##  2 US               United States  Texas        Dallas Coun NA        
##  3 US               United States  Texas        Dallas Coun NA        
##  4 US               United States  Texas        Dallas Coun NA        
##  5 US               United States  Texas        Dallas Coun NA        
##  6 US               United States  Texas        Dallas Coun NA        
##  7 US               United States  Texas        Dallas Coun NA        
##  8 US               United States  Texas        Dallas Coun NA        
##  9 US               United States  Texas        Dallas Coun NA        
## 10 US               United States  Texas        Dallas Coun NA        
## #  with 333 more rows, and 9 more variables: iso_3166_2_code <fct>,
## #   census_fips_code <lgl>, date <date>,
## #   retail_and_recreation_percent_change_from_baseline <dbl>,
## #   grocery_and_pharmacy_percent_change_from_baseline <dbl>,
## #   parks_percent_change_from_baseline <dbl>,
## #   transit_stations_percent_change_from_baseline <dbl>,
## #   workplaces_percent_change_from_baseline <dbl>,
## #   residential_percent_change_from_baseline <dbl>
…
